…
    ## Warning in .f(.x[[i]], ...):     BENZO[B,J,K]FLUORANTHENES

    ## Warning in .f(.x[[i]], ...):     BENZO(K)FLUORANTHENE

    ## Warning in add_if_list(PARAMETER, CONCENTRATION, pah19list): The following parameters are missing:

    ## Warning in .f(.x[[i]], ...):     BENZO[B,J,K]FLUORANTHENES

    ## Warning in .f(.x[[i]], ...):     BENZO(K)FLUORANTHENE

``` r
tst
```

    ## # A tibble: 123 x 5
    ##    Code                     ANALYSIS_LAB_SAMPLE_ID     PAH19 original difference
    ##    <chr>                    <chr>                      <dbl>    <dbl>      <dbl>
    ##  1 CBANAN_REP_1_2007_1      L10702-1                    27.1     26.8      0.258
    ##  2 CBANAN_REP_2_2007_1      L10702-2                    20.0     20.5     -0.538
    ##  3 CBANAN_REP_3_2007_1      L10702-3                    26.3     27.1     -0.779
    ##  4 CBANAN_REP_4_2007_1      L10702-4                    35.8     35.2      0.545
    ##  5 CBBBBB_REP_1_2006_4      BACK COVE, PORTLAND - REP~  31.5     NA       NA    
    ##  6 CBBBBB_REP_2_2006_4      BACK COVE, PORTLAND - REP~  32.1     NA       NA    
    ##  7 CBBBBB_REP_3_2006_4      BACK COVE, PORTLAND - REP~  33.7     NA       NA    
    ##  8 CBEEEE_REP_1_2007_3      L10702-17                   36.7     36.8     -0.105
    ##  9 CBEEEE_REP_1_2009_5      L13939-1                    42.2     44.4     -2.18 
    ## 10 CBEEEE_REP_1_2011_2011_1 L17179-5                    38.4     34.2      4.19 
    ## # ... with 113 more rows
…
# How are Benzoflouranthenes Reported?

``` r
SWAT_simplified %>%
  select(Code, ANALYSIS_LAB_SAMPLE_ID, `WEIGHT BASIS`,
         `TEST METHOD`, PARAMETER, CONCENTRATION, Class)%>%
  filter (`WEIGHT BASIS` == 'WET') %>%
  filter(PARAMETER %in% BenzoFs) %>%
  pivot_wider(c(Code, ANALYSIS_LAB_SAMPLE_ID, `TEST METHOD`),
                names_from = PARAMETER, values_from = CONCENTRATION) %>%
  rename_all(~ c('Code', 'Samp', 'Method', 'BJK', 'None', 'B', 'JK', 'K'))
```

    ## # A tibble: 123 x 8
    ##    Code            Samp                  Method     BJK   None     B    JK     K
    ##    <chr>           <chr>                 <chr>    <dbl>  <dbl> <dbl> <dbl> <dbl>
    ##  1 CBJWPB_REP_1_2~ L10702-41 L           SW8270~  0.257 NA        NA    NA    NA
    ##  2 CBJWPB_REP_2_2~ L10702-42 L           SW8270~  0.274 NA        NA    NA    NA
    ##  3 CBJWPB_REP_3_2~ L10702-43 LI          SW8270~  0.31  NA        NA    NA    NA
    ##  4 CBJWPB_REP_4_2~ L10702-44 L           SW8270~  0.286 NA        NA    NA    NA
    ##  5 CBANAN_REP_1_2~ L10702-1              SW8270~  2.53  NA        NA    NA    NA
    ##  6 CBANAN_REP_2_2~ L10702-2              SW8270~  1.87  NA        NA    NA    NA
    ##  7 CBANAN_REP_3_2~ L10702-3              SW8270~  2.18  NA        NA    NA    NA
    ##  8 CBANAN_REP_4_2~ L10702-4              SW8270~  3.36  NA        NA    NA    NA
    ##  9 CBMCMC_REP_1_2~ L13939-9              SW8270~  1.61  NA        NA    NA    NA
    ## 10 CBMCMC_REP_2_2~ MILL CREEK, FALMOUTH~ SW8270~ NA      0.914    NA    NA    NA
    ## # ... with 113 more rows
…
``` r
SWAT_simplified %>%
  select(Code, `TEST METHOD`, ANALYSIS_LAB_SAMPLE_ID, `WEIGHT BASIS`,
         PARAMETER, CONCENTRATION, Class)%>%
  filter (`WEIGHT BASIS` == 'WET') %>%
  filter(grepl('C[1-9]-', PARAMETER)) %>%    # C functions
  filter(! grepl('/', PARAMETER)) %>%       # Not c ratios
  pivot_wider(names_from = Class, values_from = CONCENTRATION) %>%
  select( -ANALYSIS_LAB_SAMPLE_ID, -`WEIGHT BASIS`)
```

    ## # A tibble: 980 x 4
    ##    Code                `TEST METHOD`      PARAMETER            `PAH Calculated`
    ##    <chr>               <chr>              <chr>                           <dbl>
    ##  1 CBMCMC_REP_1_2009_5 CALCULATED WHO2005 C4-DIBENZOTHIOPHENES            0.87 
    ##  2 CBMCMC_REP_1_2009_5 CALCULATED WHO2005 C3-DIBENZOTHIOPHENES            1.83 
    ##  3 CBMCMC_REP_1_2009_5 CALCULATED WHO2005 C2-DIBENZOTHIOPHENES            2.49 
    ##  4 CBMCMC_REP_1_2009_5 CALCULATED WHO2005 C1-DIBENZOTHIOPHENES           NA    
    ##  5 CBMCMC_REP_1_2009_5 CALCULATED WHO2005 C1-NAPHTHALENES                 1.23 
    ##  6 CBMCMC_REP_1_2009_5 CALCULATED WHO2005 C2-BIPHENYLS                    1.29 
    ##  7 CBMCMC_REP_1_2009_5 CALCULATED WHO2005 C1-BIPHENYLS                    0.255
    ##  8 CBMCMC_REP_1_2009_5 CALCULATED WHO2005 C3-FLUORENES                   14.4  
    ##  9 CBMCMC_REP_1_2009_5 CALCULATED WHO2005 C2-NAPHTHALENES                 3.37 
    ## 10 CBMCMC_REP_1_2009_5 CALCULATED WHO2005 C2-FLUORENES                    7.58 
    ## # ... with 970 more rows
…
