…
## Read Excel File with Classification of Parameters

We can then read in the resulting Excel File to provide groupings…

``` r
Parameter_List <- read_excel(file.path(parent,"Parameter List.xlsx"), 
    sheet = "Parameter List") %>%
  mutate(Class = factor(Class)) %>%
  arrange(Class, PARAMETER)
Parameter_List
```

    ## # A tibble: 399 x 2
    ##    PARAMETER                                    Class 
    ##    <chr>                                        <fct> 
    ##  1 1,2,3,4,6,7,8-HPCDD                          Dioxin
    ##  2 1,2,3,4,6,7,8-HPCDF                          Dioxin
    ##  3 1,2,3,4,7,8-HXCDD                            Dioxin
    ##  4 1,2,3,4,7,8-HXCDF                            Dioxin
    ##  5 1,2,3,4,7,8,9-HEPTACHLORODIBENZOFURAN(HPCDF) Dioxin
    ##  6 1,2,3,6,7,8-HXCDD                            Dioxin
    ##  7 1,2,3,6,7,8-HXCDF                            Dioxin
    ##  8 1,2,3,7,8-PECDD                              Dioxin
    ##  9 1,2,3,7,8-PECDF                              Dioxin
    ## 10 1,2,3,7,8,9-HXCDD                            Dioxin
    ## # ... with 389 more rows
…
