…
Lets see how many times we have duplicate values with the same CAS
number.

``` r
SWAT_simplified %>% 
 # filter(`WEIGHT BASIS` == 'LIP') %>%
  group_by(CAS_NO) %>%
  filter(grepl('PCB', Class)) %>%
  summarize(nnames = length(unique(PARAMETER)),
            name = first (PARAMETER),
            .groups = 'drop') %>%
  arrange(name)
```

    ## # A tibble: 178 x 3
    ##    CAS_NO   nnames name                                    
    ##    <chr>     <int> <chr>                                   
    ##  1 65510443      1 2',3,4,4',5-PENTACHLOROBIPHENYL         
    ##  2 2051607       1 2-CHLOROBIPHENYL                        
    ##  3 13029088      1 2,2'-DICHLOROBIPHENYL                   
    ##  4 38444789      1 2,2',3-TRICHLOROBIPHENYL                
    ##  5 52663624      1 2,2',3,3',4-PENTACHLOROBIPHENYL         
    ##  6 35065306      1 2,2',3,3',4,4',5-HEPTACHLOROBIPHENYL    
    ##  7 35694087      1 2,2',3,3',4,4',5,5'-OCTACHLOROBIPHENYL  
    ##  8 40186729      1 2,2',3,3',4,4',5,5',6-NONACHLOROBIPHENYL
    ##  9 42740501      1 2,2',3,3',4,4',5,6'-OCTACHLOROBIPHENYL  
    ## 10 52663782      1 2,2',3,3',4,4',5,6-OCTACHLOROBIPHENYL   
    ## # ... with 168 more rows
…
    ## Warning: `current_vars()` is deprecated as of dplyr 0.8.4.
    ## Please use `tidyselect::peek_vars()` instead.
    ## This warning is displayed once every 8 hours.
    ## Call `lifecycle::last_warnings()` to see where this warning was generated.

    ## # A tibble: 471 x 13
    ##    `TEST METHOD`  Year `4-CHLOROBIPHEN~ `4,4'-DICHLOROB~ DECACHLOROBIPHE~
    ##    <chr>         <dbl>            <dbl>            <dbl>            <dbl>
    ##  1 E1668A         2003               NA               NA               NA
    ##  2 E1668A         2003               NA               NA               NA
    ##  3 E1668A         2003               NA               NA               NA
    ##  4 E1668A         2003               NA               NA               NA
    ##  5 E1613          2003               NA               NA               NA
    ##  6 E1613          2003               NA               NA               NA
    ##  7 E1668A         2003               NA               NA               NA
    ##  8 E1668A         2003               NA               NA               NA
    ##  9 E1613          2003               NA               NA               NA
    ## 10 E1668A         2003               NA               NA               NA
    ## # ... with 461 more rows, and 8 more variables: `PCB-012/013` <dbl>,
    ## #   `PCB-018/030` <dbl>, `PCB-020/028` <dbl>, `PCB-021/033` <dbl>,
    ## #   `PCB-026/029` <dbl>, `PCB-040/041/071` <dbl>, `PCB-044/047/065` <dbl>,
    ## #   `PCB-045/051` <dbl>
…
``` r
SWAT_simplified %>%
  select(Code, ANALYSIS_LAB_SAMPLE_ID, `TEST METHOD`, `WEIGHT BASIS`,
         PARAMETER, CONCENTRATION) %>%
  filter (`WEIGHT BASIS` == 'WET') %>%
  filter(grepl("PCB", PARAMETER)) %>%
  filter(grepl("TOTAL", PARAMETER) |
           grepl('TEQ', PARAMETER) |
           grepl('CALCULATED', `TEST METHOD`)) %>%
  pivot_wider(names_from = PARAMETER, values_from = CONCENTRATION)
```

    ## # A tibble: 195 x 11
    ##    Code  ANALYSIS_LAB_SA~ `TEST METHOD` `WEIGHT BASIS` `PCB TOTAL TEQ ~
    ##    <chr> <chr>            <chr>         <chr>                     <dbl>
    ##  1 CBJW~ L10702-41        E1668A        WET                      0.077 
    ##  2 CBJW~ L10702-42        E1668A        WET                      0.073 
    ##  3 CBJW~ L10702-43        E1668A        WET                      0.093 
    ##  4 CBJW~ L10702-44        E1668A        WET                      0.074 
    ##  5 CBAN~ L10702-1         E1668A        WET                      0.0171
    ##  6 CBAN~ L10702-2         E1668A        WET                      0.213 
    ##  7 CBAN~ L10702-3 (A)     E1668A        WET                      0.25  
    ##  8 CBAN~ L10702-4         E1668A        WET                      0.2   
    ##  9 CBMC~ MILL CREEK, FAL~ E1668A        WET                      0.275 
    ## 10 CBMC~ L13939-9         CALCULATED W~ WET                      0.226 
    ## # ... with 185 more rows, and 6 more variables: `PCB TOTAL TEQ (ND=1/2
    ## #   DL)` <dbl>, `PCB TOTAL TEQ (ND=DL)` <dbl>, `TOTAL PCB-H` <dbl>, `TOTAL
    ## #   PCB-O` <dbl>, `TOTAL PCB-D` <dbl>, PCBS <dbl>
…
