…
## Missing Sample Point Data

Some Sites do not appear to have independent location data for sample
points, or not for all sample points. That is actually easier to see in
the Excel file, but we can look at it in R by searching for NAs.

``` r
samples_spatial_data %>%
  filter(is.na(`SAMPLE POINT UTM X`)) %>%
  select(-starts_with('SITE'), - starts_with('LOCATION'))
```

    ## # A tibble: 21 x 9
    ##    CURRENT_SITE_NA~ DATA_SOURCE `SAMPLE POINT S~ `SAMPLE POINT N~
    ##    <chr>            <chr>                  <dbl> <chr>           
    ##  1 MILL CREEK - CB~ MDEP BLWQ ~            82245 REP 4           
    ##  2 MILL CREEK - CB~ MDEP BLWQ ~           132065 REP 1 2017      
    ##  3 MILL CREEK - CB~ MDEP BLWQ ~           132066 REP 2 2017      
    ##  4 MILL CREEK - CB~ MDEP BLWQ ~           132067 REP 3 2017      
    ##  5 MILL CREEK - CB~ MDEP BLWQ ~           132068 REP 4 2017      
    ##  6 BRUNSWICK MARE ~ MDEP BLWQ ~           132078 REP 1 2017      
    ##  7 BRUNSWICK MARE ~ MDEP BLWQ ~           132079 REP 2 2017      
    ##  8 BRUNSWICK MARE ~ MDEP BLWQ ~           132080 REP 3 2017      
    ##  9 BRUNSWICK MARE ~ MDEP BLWQ ~           132081 REP 4 2017      
    ## 10 EAST END BEACH ~ MDEP BLWQ ~           132062 REP 1 2017      
    ## # ... with 11 more rows, and 5 more variables: `SAMPLE POINT TYPE` <chr>,
    ## #   `SAMPLE POINT UTM X` <dbl>, `SAMPLE POINT UTM Y` <dbl>, `SAMPLE POINT
    ## #   LATITUDE` <dbl>, `SAMPLE POINT LONGITUDE` <dbl>
…
ArcGIS was having trouble reading earlier drafts of the following file,
so we simplify here by removing spaces from column names and removing
NAs. Without this step, NAs were forcing ArcGIS to interpret data
columns as text.

``` r
samples_spatial_data %>%
  select ( -`SITE UTM X`, -`SITE UTM Y`, -`SITE LATITUDE`, -`SITE LONGITUDE`,
           - DATA_SOURCE, -LOCATION_ACCURACY, -LOCATION_METHOD) %>%
  rename_all(~gsub(' ', '', .))
```

    ## # A tibble: 183 x 9
    ##    SITESEQ CURRENT_SITE_NA~ SAMPLEPOINTSEQ SAMPLEPOINTNAME SAMPLEPOINTTYPE
    ##      <dbl> <chr>                     <dbl> <chr>           <chr>          
    ##  1   70615 HARRASEEKET RIV~          70661 A               MARINE         
    ##  2   70672 BACK BAY - CBBB~          70699 REP 1           MARINE         
    ##  3   70672 BACK BAY - CBBB~          70700 REP 2           MARINE         
    ##  4   70672 BACK BAY - CBBB~          70701 REP 3           MARINE         
    ##  5   70672 BACK BAY - CBBB~         127990 REP 1 2015      MARINE         
    ##  6   70672 BACK BAY - CBBB~         127991 REP 2 2015      MARINE         
    ##  7   70672 BACK BAY - CBBB~         127992 REP 3 2015      MARINE         
    ##  8   70672 BACK BAY - CBBB~         127993 REP 4 2015      MARINE         
    ##  9   70672 BACK BAY - CBBB~         127994 REP 5 2015      MARINE         
    ## 10   70674 FORE RIVER OUTE~          70719 1N              MARINE         
    ## # ... with 173 more rows, and 4 more variables: SAMPLEPOINTUTMX <dbl>,
    ## #   SAMPLEPOINTUTMY <dbl>, SAMPLEPOINTLATITUDE <dbl>,
    ## #   SAMPLEPOINTLONGITUDE <dbl>
…
