…
  # Create Year Time Stamp and (Draft 1) Unique Sample ID
  mutate    (Year  = as.numeric(format(SAMPLE_DATE, '%Y')),
             sample_id = gsub(" ", "_", SAMPLE_ID)) %>%
  group_by  (Year) %>%
  mutate    (tag = as.numeric(factor(SAMPLE_DATE))) %>%
  ungroup   ()  %>%
  mutate    (Code = paste(sample_id, Year, tag, sep = '_')) %>%
  select    (-sample_id, -tag) %>%
  select(`SITE SEQ`, SiteCode, Site, Year, SAMPLE_DATE,
         SAMPLE_ID, Code, everything())
SWAT_simplified
```

    ## # A tibble: 93,357 x 25
    ##    `SITE SEQ` SiteCode Site   Year SAMPLE_DATE         SAMPLE_ID Code 
    ##         <dbl> <chr>    <chr> <dbl> <dttm>              <chr>     <chr>
    ##  1      76091 CBJWPB   JEWE~  2007 2007-10-22 00:00:00 CBJWPB R~ CBJW~
    ##  2      76091 CBJWPB   JEWE~  2007 2007-10-22 00:00:00 CBJWPB R~ CBJW~
    ##  3      76091 CBJWPB   JEWE~  2007 2007-10-22 00:00:00 CBJWPB R~ CBJW~
    ##  4      76091 CBJWPB   JEWE~  2007 2007-10-22 00:00:00 CBJWPB R~ CBJW~
    ##  5      76091 CBJWPB   JEWE~  2007 2007-10-22 00:00:00 CBJWPB R~ CBJW~
    ##  6      76091 CBJWPB   JEWE~  2007 2007-10-22 00:00:00 CBJWPB R~ CBJW~
    ##  7      76091 CBJWPB   JEWE~  2007 2007-10-22 00:00:00 CBJWPB R~ CBJW~
    ##  8      76091 CBJWPB   JEWE~  2007 2007-10-22 00:00:00 CBJWPB R~ CBJW~
    ##  9      76091 CBJWPB   JEWE~  2007 2007-10-22 00:00:00 CBJWPB R~ CBJW~
    ## 10      76091 CBJWPB   JEWE~  2007 2007-10-22 00:00:00 CBJWPB R~ CBJW~
    ## # ... with 93,347 more rows, and 18 more variables:
    ## #   CURRENT_SAMPLE_POINT_NAME <chr>, `ANALYSIS LAB` <chr>, `SAMPLE COLLECTION
    ## #   METHOD` <chr>, ANALYSIS_LAB_SAMPLE_ID <chr>, `TEST METHOD` <chr>, `TEST
    ## #   METHOD DESCRIPTION` <chr>, PARAMETER <chr>, CONCENTRATION <dbl>, `UNITS
    ## #   VALUE` <chr>, `LAB QUALIFIER` <chr>, `VALIDATION QUALIFIER` <chr>,
    ## #   `QUALIFIER DESCRIPTION` <chr>, RL <dbl>, MDL <dbl>, `WEIGHT BASIS` <chr>,
    ## #   `PREP METHOD` <chr>, DILUTION_FACTOR <chr>, CAS_NO <chr>
…
    ## [1] 128

``` r
tmp
```

    ## # A tibble: 128 x 7
    ##    `SITE SEQ` SAMPLE_DATE         Code  PARAMETER `WEIGHT BASIS` CONCENTRATION
    ##         <dbl> <dttm>              <chr> <chr>     <chr>                  <dbl>
    ##  1      70672 2006-11-29 00:00:00 CBBB~ 2,4'-DDD  WET                    0.411
    ##  2      70672 2006-11-29 00:00:00 CBBB~ 2,4'-DDE  WET                    0.186
    ##  3      70672 2006-11-29 00:00:00 CBBB~ 2,4'-DDT  WET                    0.09 
    ##  4      70672 2006-11-29 00:00:00 CBBB~ 4,4'-DDD  WET                    1.51 
    ##  5      70672 2006-11-29 00:00:00 CBBB~ 4,4'-DDE  WET                    1.36 
    ##  6      70672 2006-11-29 00:00:00 CBBB~ 4,4'-DDT  WET                    0.292
    ##  7      70672 2006-11-29 00:00:00 CBBB~ ALDRIN    WET                   NA    
    ##  8      70672 2006-11-29 00:00:00 CBBB~ ALPHA-BHC WET                    0.172
    ##  9      70672 2006-11-29 00:00:00 CBBB~ ALPHA-CH~ WET                    0.162
    ## 10      70672 2006-11-29 00:00:00 CBBB~ BETA-BHC  WET                   NA    
    ## # ... with 118 more rows, and 1 more variable: nvals <int>
…
So, even separated by analysis lab, we see just over 80 duplicate
values. To figure out why, we need to look at the original data again.

``` r
SWAT_data %>%
  filter(`WEIGHT BASIS` == 'WET') %>%
  group_by(`SITE SEQ`, SAMPLE_DATE, SAMPLE_ID, PARAMETER, `ANALYSIS LAB` ) %>%
  mutate(n = n(),
         m = mean(CONCENTRATION, na.rm=TRUE),
         d = max(CONCENTRATION) - min(CONCENTRATION)) %>%
  filter(n>1 & d==0)
```

    ## # A tibble: 208 x 44
    ## # Groups:   SITE SEQ, SAMPLE_DATE, SAMPLE_ID, PARAMETER, ANALYSIS LAB [83]
    ##    `SITE SEQ` EGAD_SITE_NAME SITE_DESCRIPTION CURRENT_SAMPLE_~ `SAMPLE POINT T~
    ##         <dbl> <chr>          <chr>            <chr>            <chr>           
    ##  1      70678 MILL CREEK - ~ <NA>             REP 3            MARINE          
    ##  2      70678 MILL CREEK - ~ <NA>             REP 3            MARINE          
    ##  3      70678 MILL CREEK - ~ <NA>             REP 3            MARINE          
    ##  4      70678 MILL CREEK - ~ <NA>             REP 3            MARINE          
    ##  5      70678 MILL CREEK - ~ <NA>             REP 1 2011       MARINE          
    ##  6      70678 MILL CREEK - ~ <NA>             REP 1 2011       MARINE          
    ##  7      70678 MILL CREEK - ~ <NA>             REP 2 2011       MARINE          
    ##  8      70678 MILL CREEK - ~ <NA>             REP 3 2011       MARINE          
    ##  9      70678 MILL CREEK - ~ <NA>             REP 2 2011       MARINE          
    ## 10      70678 MILL CREEK - ~ <NA>             REP 4 2011       MARINE          
    ## # ... with 198 more rows, and 39 more variables: `ANALYSIS LAB` <chr>, `SAMPLE
    ## #   COLLECTION METHOD` <chr>, SAMPLE_ID <chr>, ANALYSIS_LAB_SAMPLE_ID <chr>,
    ## #   `QC TYPE` <chr>, `SAMPLE TYPE` <chr>, SAMPLED_BY <chr>, SAMPLE_DATE <dttm>,
    ## #   `SAMPLE LOCATION` <chr>, `TEST METHOD` <chr>, `TEST METHOD
    ## #   DESCRIPTION` <chr>, ANALYSIS_DATE <dttm>, PARAMETER <chr>,
    ## #   CONCENTRATION <dbl>, `UNITS VALUE` <chr>, `UNITS DESCRIPTION` <chr>, `LAB
    ## #   QUALIFIER` <chr>, `VALIDATION QUALIFIER` <chr>, `QUALIFIER
    ## #   DESCRIPTION` <chr>, RL <dbl>, MDL <dbl>, `WEIGHT BASIS` <chr>, `RESULT
    ## #   TYPE` <chr>, `PREP METHOD` <chr>, PARAMETER_QUALIFIER <chr>,
…
