…
  summarize (SAMPLE_ID = first(SAMPLE_ID),
             SAMPLE_DATE = first(SAMPLE_DATE),
             .groups = 'drop') %>%
  mutate    (Year  = as.numeric(format(SAMPLE_DATE, '%Y'))) %>%
  mutate    (sample_id = gsub(" ", "_", SAMPLE_ID)) %>%
  group_by  (Year) %>%
  mutate    (tag = as.numeric(factor(SAMPLE_DATE))) %>%
  ungroup   ()  %>%
  mutate    (code = paste(sample_id, Year, tag, sep = '_')) %>%
  select    (-sample_id) %>%
  arrange(Year, SAMPLE_ID)
tmp
```

    ## # A tibble: 157 x 5
    ##    SAMPLE_ID    SAMPLE_DATE          Year   tag code               
    ##    <chr>        <dttm>              <dbl> <dbl> <chr>              
    ##  1 CBFROR REP 1 2003-10-01 00:00:00  2003     1 CBFROR_REP_1_2003_1
    ##  2 CBFROR REP 1 2003-11-17 00:00:00  2003     4 CBFROR_REP_1_2003_4
    ##  3 CBFROR REP 2 2003-10-01 00:00:00  2003     1 CBFROR_REP_2_2003_1
    ##  4 CBFROR REP 2 2003-11-17 00:00:00  2003     4 CBFROR_REP_2_2003_4
    ##  5 CBFROR REP 3 2003-10-01 00:00:00  2003     1 CBFROR_REP_3_2003_1
    ##  6 CBFROR REP 3 2003-11-17 00:00:00  2003     4 CBFROR_REP_3_2003_4
    ##  7 CBFROR REP 4 2003-10-01 00:00:00  2003     1 CBFROR_REP_4_2003_1
    ##  8 CBFROR REP 4 2003-11-17 00:00:00  2003     4 CBFROR_REP_4_2003_4
    ##  9 CBGDSW REP 1 2003-10-01 00:00:00  2003     1 CBGDSW_REP_1_2003_1
    ## 10 CBGDSW REP 1 2003-11-17 00:00:00  2003     4 CBGDSW_REP_1_2003_4
    ## # ... with 147 more rows
…
  # Create Year Time Stamp and (Draft 1) Unique Sample ID
  mutate    (Year  = as.numeric(format(SAMPLE_DATE, '%Y')),
             sample_id = gsub(" ", "_", SAMPLE_ID)) %>%
  group_by  (Year) %>%
  mutate    (tag = as.numeric(factor(SAMPLE_DATE))) %>%
  ungroup   ()  %>%
  mutate    (Code = paste(sample_id, Year, tag, sep = '_')) %>%
  select    (-sample_id, -tag) %>%
  select(`SITE SEQ`, SiteCode, Site, Year, SAMPLE_DATE, SAMPLE_ID, Code, everything())
SWAT_simplified
```

    ## # A tibble: 93,357 x 25
    ##    `SITE SEQ` SiteCode Site   Year SAMPLE_DATE         SAMPLE_ID Code 
    ##         <dbl> <chr>    <chr> <dbl> <dttm>              <chr>     <chr>
    ##  1      76091 CBJWPB   JEWE~  2007 2007-10-22 00:00:00 CBJWPB R~ CBJW~
    ##  2      76091 CBJWPB   JEWE~  2007 2007-10-22 00:00:00 CBJWPB R~ CBJW~
    ##  3      76091 CBJWPB   JEWE~  2007 2007-10-22 00:00:00 CBJWPB R~ CBJW~
    ##  4      76091 CBJWPB   JEWE~  2007 2007-10-22 00:00:00 CBJWPB R~ CBJW~
    ##  5      76091 CBJWPB   JEWE~  2007 2007-10-22 00:00:00 CBJWPB R~ CBJW~
    ##  6      76091 CBJWPB   JEWE~  2007 2007-10-22 00:00:00 CBJWPB R~ CBJW~
    ##  7      76091 CBJWPB   JEWE~  2007 2007-10-22 00:00:00 CBJWPB R~ CBJW~
    ##  8      76091 CBJWPB   JEWE~  2007 2007-10-22 00:00:00 CBJWPB R~ CBJW~
    ##  9      76091 CBJWPB   JEWE~  2007 2007-10-22 00:00:00 CBJWPB R~ CBJW~
    ## 10      76091 CBJWPB   JEWE~  2007 2007-10-22 00:00:00 CBJWPB R~ CBJW~
    ## # ... with 93,347 more rows, and 18 more variables:
    ## #   CURRENT_SAMPLE_POINT_NAME <chr>, `ANALYSIS LAB` <chr>, `SAMPLE COLLECTION
    ## #   METHOD` <chr>, ANALYSIS_LAB_SAMPLE_ID <chr>, `TEST METHOD` <chr>, `TEST
    ## #   METHOD DESCRIPTION` <chr>, PARAMETER <chr>, CONCENTRATION <dbl>, `UNITS
    ## #   VALUE` <chr>, `LAB QUALIFIER` <chr>, `VALIDATION QUALIFIER` <chr>,
    ## #   `QUALIFIER DESCRIPTION` <chr>, RL <dbl>, MDL <dbl>, `WEIGHT BASIS` <chr>,
    ## #   `PREP METHOD` <chr>, DILUTION_FACTOR <chr>, CAS_NO <chr>
…
``` r
SWAT_simplified %>%
  select(c(SiteCode, CURRENT_SAMPLE_POINT_NAME,
           `SAMPLE COLLECTION METHOD`,
           SAMPLE_DATE, `TEST METHOD`, Code)) %>%
  group_by(Code) %>%
  summarize(nsites    = length(unique(`SiteCode`)),
            ndates    = length(unique(`SAMPLE_DATE`)),
            nsamppt   = length(unique(`CURRENT_SAMPLE_POINT_NAME`)),
            nmeth     = length(unique(`SAMPLE COLLECTION METHOD`)),
            .groups = 'drop')
```

    ## # A tibble: 157 x 5
    ##    Code                     nsites ndates nsamppt nmeth
    ##    <chr>                     <int>  <int>   <int> <int>
    ##  1 CBANAN_REP_1_2007_1           1      1       1     2
    ##  2 CBANAN_REP_2_2007_1           1      1       1     2
    ##  3 CBANAN_REP_3_2007_1           1      1       1     2
    ##  4 CBANAN_REP_4_2007_1           1      1       1     2
    ##  5 CBBBBB_REP_1_2006_4           1      1       1     1
    ##  6 CBBBBB_REP_2_2006_4           1      1       1     1
    ##  7 CBBBBB_REP_3_2006_4           1      1       1     1
    ##  8 CBEEEE_REP_1_2007_3           1      1       1     2
    ##  9 CBEEEE_REP_1_2009_5           1      1       1     2
    ## 10 CBEEEE_REP_1_2011_2011_1      1      1       1     2
    ## # ... with 147 more rows
…
