…
  # Create Year Time Stamp and (Draft 1) Unique Sample ID
  mutate    (Year  = as.numeric(format(SAMPLE_DATE, '%Y')),
             sample_id = gsub(" ", "_", SAMPLE_ID)) %>%
  group_by  (Year) %>%
  mutate    (tag = as.numeric(factor(SAMPLE_DATE))) %>%
  ungroup   ()  %>%
  mutate    (Code = paste(sample_id, Year, tag, sep = '_')) %>%
  select    (-sample_id, -tag) %>%
  select    (`SITE SEQ`, SiteCode, Site, Year, SAMPLE_DATE,
              SAMPLE_ID, Code, everything())
SWAT_simplified
```

    ## # A tibble: 93,357 x 25
    ##    `SITE SEQ` SiteCode Site   Year SAMPLE_DATE         SAMPLE_ID Code 
    ##         <dbl> <chr>    <chr> <dbl> <dttm>              <chr>     <chr>
    ##  1      76091 CBJWPB   JEWE~  2007 2007-10-22 00:00:00 CBJWPB R~ CBJW~
    ##  2      76091 CBJWPB   JEWE~  2007 2007-10-22 00:00:00 CBJWPB R~ CBJW~
    ##  3      76091 CBJWPB   JEWE~  2007 2007-10-22 00:00:00 CBJWPB R~ CBJW~
    ##  4      76091 CBJWPB   JEWE~  2007 2007-10-22 00:00:00 CBJWPB R~ CBJW~
    ##  5      76091 CBJWPB   JEWE~  2007 2007-10-22 00:00:00 CBJWPB R~ CBJW~
    ##  6      76091 CBJWPB   JEWE~  2007 2007-10-22 00:00:00 CBJWPB R~ CBJW~
    ##  7      76091 CBJWPB   JEWE~  2007 2007-10-22 00:00:00 CBJWPB R~ CBJW~
    ##  8      76091 CBJWPB   JEWE~  2007 2007-10-22 00:00:00 CBJWPB R~ CBJW~
    ##  9      76091 CBJWPB   JEWE~  2007 2007-10-22 00:00:00 CBJWPB R~ CBJW~
    ## 10      76091 CBJWPB   JEWE~  2007 2007-10-22 00:00:00 CBJWPB R~ CBJW~
    ## # ... with 93,347 more rows, and 18 more variables:
    ## #   CURRENT_SAMPLE_POINT_NAME <chr>, `ANALYSIS LAB` <chr>, `SAMPLE COLLECTION
    ## #   METHOD` <chr>, ANALYSIS_LAB_SAMPLE_ID <chr>, `TEST METHOD` <chr>, `TEST
    ## #   METHOD DESCRIPTION` <chr>, PARAMETER <chr>, CONCENTRATION <dbl>, `UNITS
    ## #   VALUE` <chr>, `LAB QUALIFIER` <chr>, `VALIDATION QUALIFIER` <chr>,
    ## #   `QUALIFIER DESCRIPTION` <chr>, RL <dbl>, MDL <dbl>, `WEIGHT BASIS` <chr>,
    ## #   `PREP METHOD` <chr>, DILUTION_FACTOR <chr>, CAS_NO <chr>
…
``` r
SWAT_simplified %>%
  select(Code, PARAMETER, `WEIGHT BASIS`) %>%
  group_by(PARAMETER, Code) %>%
  summarize(nlip = sum(`WEIGHT BASIS` == 'LIP', na.rm= TRUE),
            ndry = sum(`WEIGHT BASIS` == 'DRY', na.rm= TRUE),
            nwet = sum(`WEIGHT BASIS` == 'WET', na.rm= TRUE),
            problem = ! (ndry <= nwet),
            .groups = 'drop') %>%
    filter(problem)
```

    ## # A tibble: 178 x 6
    ##    PARAMETER Code                 nlip  ndry  nwet problem
    ##    <chr>     <chr>               <int> <int> <int> <lgl>  
    ##  1 ALUMINUM  CBBBBB_REP_1_2006_4     1     1     0 TRUE   
    ##  2 ALUMINUM  CBBBBB_REP_2_2006_4     1     1     0 TRUE   
    ##  3 ALUMINUM  CBBBBB_REP_3_2006_4     1     1     0 TRUE   
    ##  4 ALUMINUM  CBGDCC_REP_1_2006_2     1     1     0 TRUE   
    ##  5 ALUMINUM  CBGDCC_REP_2_2006_2     1     1     0 TRUE   
    ##  6 ALUMINUM  CBGDCC_REP_3_2006_2     1     1     0 TRUE   
    ##  7 ALUMINUM  CBMCMC_REP_1_2006_3     1     1     0 TRUE   
    ##  8 ALUMINUM  CBMCMC_REP_2_2006_3     1     1     0 TRUE   
    ##  9 ALUMINUM  CBMCMC_REP_3_2006_3     1     1     0 TRUE   
    ## 10 CADMIUM   CBBBBB_REP_1_2006_4     1     1     0 TRUE   
    ## # ... with 168 more rows
…
``` r
SWAT_simplified %>%
  select(Code, PARAMETER, `TEST METHOD`, `WEIGHT BASIS`, CONCENTRATION) %>%
  group_by(Code, PARAMETER) %>%
  summarize(method = first(`TEST METHOD`),
            vlip = mean(CONCENTRATION[`WEIGHT BASIS` == 'LIP'], na.rm= TRUE),
            vdry = mean(CONCENTRATION[`WEIGHT BASIS` == 'DRY'], na.rm= TRUE),
            vwet = mean(CONCENTRATION[`WEIGHT BASIS` == 'WET'], na.rm= TRUE),
            n = n(),
            problem = ! (vlip >= vdry & vdry >= vwet),
            .groups = 'drop') %>%
      filter(problem)
```

    ## # A tibble: 145 x 8
    ##    Code         PARAMETER               method   vlip   vdry  vwet     n problem
    ##    <chr>        <chr>                   <chr>   <dbl>  <dbl> <dbl> <int> <lgl>  
    ##  1 CBEEEE_REP_~ 2',3,4,4',5-PENTACHLOR~ E1668A  61.1   88.2   8.55     3 TRUE   
    ##  2 CBEEEE_REP_~ 2-CHLOROBIPHENYL        E1668A   2.5    3.61  0.35     3 TRUE   
    ##  3 CBEEEE_REP_~ 2,2'-DICHLOROBIPHENYL   E1668A   8.14  11.7   1.14     3 TRUE   
    ##  4 CBEEEE_REP_~ 2,2',3-TRICHLOROBIPHEN~ E1668A  26.4   38.1   3.7      3 TRUE   
    ##  5 CBEEEE_REP_~ 2,2',3,3',4-PENTACHLOR~ E1668A 319    460    44.7      3 TRUE   
    ##  6 CBEEEE_REP_~ 2,2',3,3',4,4',5-HEPTA~ E1668A 356    514    49.9      3 TRUE   
    ##  7 CBEEEE_REP_~ 2,2',3,3',4,4',5,5'-OC~ E1668A 111    160    15.5      3 TRUE   
    ##  8 CBEEEE_REP_~ 2,2',3,3',4,4',5,5',6-~ E1668A  22.7   32.8   3.18     3 TRUE   
    ##  9 CBEEEE_REP_~ 2,2',3,3',4,4',5,6'-OC~ E1668A  17.1   24.7   2.39     3 TRUE   
    ## 10 CBEEEE_REP_~ 2,2',3,3',4,4',5,6-OCT~ E1668A  14.1   20.4   1.98     3 TRUE   
    ## # ... with 135 more rows
…
To be Safe, we should probably drop this sample from the PCB
calculations if we rely on either the LIPID or DRY WEIGHT values.

The Problem does not appear to extend to other organic contaminants.

``` r
SWAT_simplified %>%
  select(Code, `SITE SEQ`, SAMPLE_DATE, `TEST METHOD`, PARAMETER,
         CONCENTRATION, `WEIGHT BASIS`) %>%
  filter(grepl("CBEEEE_REP_._2009_5", Code),
         grepl('NAPHTHALENE|DDT', PARAMETER)) %>%
  pivot_wider(names_from = `WEIGHT BASIS`, values_from = CONCENTRATION)
```

    ## # A tibble: 56 x 8
    ##    Code  `SITE SEQ` SAMPLE_DATE         `TEST METHOD` PARAMETER    LIP   WET
    ##    <chr>      <dbl> <dttm>              <chr>         <chr>      <dbl> <dbl>
    ##  1 CBEE~      76080 2009-11-10 00:00:00 CALCULATED W~ C4-NAPHT~ 156    2.15 
    ##  2 CBEE~      76080 2009-11-10 00:00:00 CALCULATED W~ C3-NAPHT~ 184    2.53 
    ##  3 CBEE~      76080 2009-11-10 00:00:00 CALCULATED W~ C2-NAPHT~ 159    2.19 
    ##  4 CBEE~      76080 2009-11-10 00:00:00 CALCULATED W~ C1-NAPHT~  94.5  1.3  
    ##  5 CBEE~      76080 2009-11-10 00:00:00 SW8270CM      2-METHYL~  57.3  0.788
    ##  6 CBEE~      76080 2009-11-10 00:00:00 SW8270CM      1,4,6,7-~  30.5  0.419
    ##  7 CBEE~      76080 2009-11-10 00:00:00 SW8270CM      NAPHTHAL~ 117    1.61 
    ##  8 CBEE~      76080 2009-11-10 00:00:00 SW8270CM      2,6-DIME~  31.8  0.437
    ##  9 CBEE~      76080 2009-11-10 00:00:00 SW8270CM      1-METHYL~  37.3  0.513
    ## 10 CBEE~      76080 2009-11-10 00:00:00 SW8270CM      1,2-DIME~   6.91 0.095
    ## # ... with 46 more rows, and 1 more variable: DRY <dbl>
…
## The Suspect Values

``` r
SWAT_simplified %>%
  select(Code, PARAMETER, CONCENTRATION, `TEST METHOD`, `WEIGHT BASIS`) %>%
  filter(Code == "CBEEEE_REP_4_2009_5",
         `TEST METHOD` == "E1668A" | 
               PARAMETER == 'PCBS' |
               grepl('PCB TOTAL TEQ', PARAMETER),
         `WEIGHT BASIS` == 'LIP' | `WEIGHT BASIS` == 'DRY')
```

    ## # A tibble: 333 x 5
    ##    Code        PARAMETER             CONCENTRATION `TEST METHOD`  `WEIGHT BASIS`
    ##    <chr>       <chr>                         <dbl> <chr>          <chr>         
    ##  1 CBEEEE_REP~ 2,2',3,3',4,4',5,6-O~         20.4  E1668A         DRY           
    ##  2 CBEEEE_REP~ PCB TOTAL TEQ (ND=0)           1.94 CALCULATED WH~ DRY           
    ##  3 CBEEEE_REP~ PCBS                       93700    CALCULATED WH~ LIP           
    ##  4 CBEEEE_REP~ 2,2',3,3',4,4',5,6-O~         14.1  E1668A         LIP           
    ##  5 CBEEEE_REP~ 2,2',3,3',4,4',5,5'-~        111    E1668A         LIP           
    ##  6 CBEEEE_REP~ 2,2',3,3',4,4',5,5'-~        160    E1668A         DRY           
    ##  7 CBEEEE_REP~ PCBS                      135000    CALCULATED WH~ DRY           
    ##  8 CBEEEE_REP~ PCB TOTAL TEQ (ND=DL)          1.48 CALCULATED WH~ LIP           
    ##  9 CBEEEE_REP~ PCB TOTAL TEQ (ND=DL)          2.14 CALCULATED WH~ DRY           
    ## 10 CBEEEE_REP~ PCB TOTAL TEQ (ND=1/~          1.42 CALCULATED WH~ LIP           
    ## # ... with 323 more rows
…
``` r
mytest <- with(SWAT_simplified, 
               Code == "CBEEEE_REP_4_2009_5" &
               (`TEST METHOD` == "E1668A" | 
                 PARAMETER == 'PCBS' |
                 grepl('PCB TOTAL TEQ', PARAMETER)) &
               (`WEIGHT BASIS` == 'LIP' | `WEIGHT BASIS` == 'DRY'))
SWAT_simplified %>%
  select(Code, PARAMETER, CONCENTRATION, `TEST METHOD`, `WEIGHT BASIS`) %>%
  filter(mytest)
```

    ## # A tibble: 333 x 5
    ##    Code        PARAMETER             CONCENTRATION `TEST METHOD`  `WEIGHT BASIS`
    ##    <chr>       <chr>                         <dbl> <chr>          <chr>         
    ##  1 CBEEEE_REP~ 2,2',3,3',4,4',5,6-O~         20.4  E1668A         DRY           
    ##  2 CBEEEE_REP~ PCB TOTAL TEQ (ND=0)           1.94 CALCULATED WH~ DRY           
    ##  3 CBEEEE_REP~ PCBS                       93700    CALCULATED WH~ LIP           
    ##  4 CBEEEE_REP~ 2,2',3,3',4,4',5,6-O~         14.1  E1668A         LIP           
    ##  5 CBEEEE_REP~ 2,2',3,3',4,4',5,5'-~        111    E1668A         LIP           
    ##  6 CBEEEE_REP~ 2,2',3,3',4,4',5,5'-~        160    E1668A         DRY           
    ##  7 CBEEEE_REP~ PCBS                      135000    CALCULATED WH~ DRY           
    ##  8 CBEEEE_REP~ PCB TOTAL TEQ (ND=DL)          1.48 CALCULATED WH~ LIP           
    ##  9 CBEEEE_REP~ PCB TOTAL TEQ (ND=DL)          2.14 CALCULATED WH~ DRY           
    ## 10 CBEEEE_REP~ PCB TOTAL TEQ (ND=1/~          1.42 CALCULATED WH~ LIP           
    ## # ... with 323 more rows
