…
    ## [1] "WADING"         "NOT APPLICABLE"

### What is `RESULT TYPE`?

``` r
unique(SWAT_data$`RESULT TYPE`)
```

    ## [1] "TARGET/REGULAR RESULT" "PHYSICAL MEASUREMENT"

``` r
SWAT_data %>% select(`RESULT TYPE`, PARAMETER) %>% filter(`RESULT TYPE`=="PHYSICAL MEASUREMENT")
```

    ## # A tibble: 228 x 2
    ##    `RESULT TYPE`        PARAMETER     
    ##    <chr>                <chr>         
    ##  1 PHYSICAL MEASUREMENT Mytilus edulis
    ##  2 PHYSICAL MEASUREMENT Mytilus edulis
    ##  3 PHYSICAL MEASUREMENT Mytilus edulis
    ##  4 PHYSICAL MEASUREMENT Mytilus edulis
    ##  5 PHYSICAL MEASUREMENT Mytilus edulis
    ##  6 PHYSICAL MEASUREMENT Mytilus edulis
    ##  7 PHYSICAL MEASUREMENT Mytilus edulis
    ##  8 PHYSICAL MEASUREMENT Mytilus edulis
    ##  9 PHYSICAL MEASUREMENT Mytilus edulis
    ## 10 PHYSICAL MEASUREMENT Mytilus edulis
    ## # ... with 218 more rows
…
### What is `CURRENT_SAMPLE_POINT_NAME`?

``` r
as.tibble(xtabs(~SWAT_data$`CURRENT_SAMPLE_POINT_NAME`, addNA = TRUE)) %>%
  rename_at(c(1), ~'SPoint1')
```

    ## Warning: `as.tibble()` is deprecated as of tibble 2.0.0.
    ## Please use `as_tibble()` instead.
    ## The signature and semantics have changed, see `?as_tibble`.
    ## This warning is displayed once every 8 hours.
    ## Call `lifecycle::last_warnings()` to see where this warning was generated.

    ## # A tibble: 40 x 2
    ##    SPoint1        n
    ##    <chr>      <int>
    ##  1 1N            40
    ##  2 2N            40
    ##  3 3N            40
    ##  4 4N            39
    ##  5 REP 1      19402
    ##  6 REP 1 2010   873
    ##  7 REP 1 2011  1746
    ##  8 REP 1 2012   889
    ##  9 REP 1 2013   830
    ## 10 REP 1 2014  2452
    ## # ... with 30 more rows
…
    ## [1] "COMPOSITE SAMPLE" "HAND-PICKED"

#### Does `SAMPLE COLLECTION METHOD` Break Out by Parameter?

``` r
xtabs(~PARAMETER + `SAMPLE COLLECTION METHOD`, data = SWAT_data) %>%
  as.tibble() %>%
  pivot_wider(id_cols = PARAMETER,
              names_from = `SAMPLE COLLECTION METHOD`,
              values_from = n) %>%
  arrange(`COMPOSITE SAMPLE`, `PARAMETER`)
```

    ## # A tibble: 399 x 3
    ##    PARAMETER                            `COMPOSITE SAMPLE` `HAND-PICKED`
    ##    <chr>                                             <int>         <int>
    ##  1 2,2',3,3',5-PENTACHLOROBIPHENYL                       0            14
    ##  2 2,2',3,4,4',5,5'-HEPTACHLOROBIPHENYL                  0            12
    ##  3 2,2',3,5',6-PENTACHLOROBIPHENYL                       0            14
    ##  4 2,2',4,4',5-PENTACHLOROBIPHENYL                       0            14
    ##  5 2,2',4,4',5,6'-HEXACHLOROBIPHENYL                     0            14
    ##  6 2,3,3',4,4',5'-HEXACHLOROBIPHENYL                     0            12
    ##  7 2,3,3',4,4',5-HEXACHLOROBIPHENYL                      0            12
    ##  8 2,3,3',4,5,6-HEXACHLOROBIPHENYL                       0            14
    ##  9 BENZO(K)FLUORANTHENE                                  0            16
    ## 10 PCB-093/098/100/102                                   0            14
    ## # ... with 389 more rows
…
Almost. with a few exceptions, all or almost all data from each site is
flagged one way or the other.

#### Does `SAMPLE COLLECTION METHOD` Break Out by Date?

``` r
xtabs(~SAMPLE_DATE + `SAMPLE COLLECTION METHOD`, data = SWAT_data) %>%
  as.tibble() %>%
  pivot_wider(id_cols = SAMPLE_DATE,
              names_from = `SAMPLE COLLECTION METHOD`,
              values_from = n)
```

    ## # A tibble: 32 x 3
    ##    SAMPLE_DATE `COMPOSITE SAMPLE` `HAND-PICKED`
    ##    <chr>                    <int>         <int>
    ##  1 2003-10-01                   0           506
    ##  2 2003-10-16                   0           159
    ##  3 2003-11-04                   0           144
    ##  4 2003-11-17                   0          3206
    ##  5 2006-10-12                 174             9
    ##  6 2006-10-17                   0           757
    ##  7 2006-10-30                1989            12
    ##  8 2006-11-29                   0           778
    ##  9 2007-10-18                3092            12
    ## 10 2007-10-22                8092            12
    ## # ... with 22 more rows
…
  summarize (SAMPLE_ID = first(SAMPLE_ID),
             SAMPLE_DATE = first(SAMPLE_DATE),
             .groups = 'drop') %>%
  mutate    (Year  = as.numeric(format(SAMPLE_DATE, '%Y'))) %>%
  mutate    (sample_id = gsub(" ", "_", SAMPLE_ID)) %>%
  group_by  (Year) %>%
  mutate    (tag = as.numeric(factor(SAMPLE_DATE))) %>%
  ungroup   ()  %>%
  mutate    (code = paste(sample_id, Year, tag, sep = '_')) %>%
  select    (-sample_id) %>%
  arrange(Year, SAMPLE_ID)
tmp
```

    ## # A tibble: 157 x 5
    ##    SAMPLE_ID    SAMPLE_DATE          Year   tag code               
    ##    <chr>        <dttm>              <dbl> <dbl> <chr>              
    ##  1 CBFROR REP 1 2003-10-01 00:00:00  2003     1 CBFROR_REP_1_2003_1
    ##  2 CBFROR REP 1 2003-11-17 00:00:00  2003     4 CBFROR_REP_1_2003_4
    ##  3 CBFROR REP 2 2003-10-01 00:00:00  2003     1 CBFROR_REP_2_2003_1
    ##  4 CBFROR REP 2 2003-11-17 00:00:00  2003     4 CBFROR_REP_2_2003_4
    ##  5 CBFROR REP 3 2003-10-01 00:00:00  2003     1 CBFROR_REP_3_2003_1
    ##  6 CBFROR REP 3 2003-11-17 00:00:00  2003     4 CBFROR_REP_3_2003_4
    ##  7 CBFROR REP 4 2003-10-01 00:00:00  2003     1 CBFROR_REP_4_2003_1
    ##  8 CBFROR REP 4 2003-11-17 00:00:00  2003     4 CBFROR_REP_4_2003_4
    ##  9 CBGDSW REP 1 2003-10-01 00:00:00  2003     1 CBGDSW_REP_1_2003_1
    ## 10 CBGDSW REP 1 2003-11-17 00:00:00  2003     4 CBGDSW_REP_1_2003_4
    ## # ... with 147 more rows
…
  # Create Year Time Stamp and (Draft 1) Unique Sample ID
  mutate    (Year  = as.numeric(format(SAMPLE_DATE, '%Y')),
             sample_id = gsub(" ", "_", SAMPLE_ID)) %>%
  group_by  (Year) %>%
  mutate    (tag = as.numeric(factor(SAMPLE_DATE))) %>%
  ungroup   ()  %>%
  mutate    (code = paste(sample_id, Year, tag, sep = '_')) %>%
  select    (-sample_id, -tag) %>%
  select(`SITE SEQ`, SiteCode, Site, Year, SAMPLE_DATE, SAMPLE_ID, code, everything())
SWAT_simplified
```

    ## # A tibble: 112,884 x 25
    ##    `SITE SEQ` SiteCode Site   Year SAMPLE_DATE         SAMPLE_ID code 
    ##         <dbl> <chr>    <chr> <dbl> <dttm>              <chr>     <chr>
    ##  1      76091 CBJWPB   JEWE~  2007 2007-10-22 00:00:00 CBJWPB R~ CBJW~
    ##  2      76091 CBJWPB   JEWE~  2007 2007-10-22 00:00:00 CBJWPB R~ CBJW~
    ##  3      76091 CBJWPB   JEWE~  2007 2007-10-22 00:00:00 CBJWPB R~ CBJW~
    ##  4      76091 CBJWPB   JEWE~  2007 2007-10-22 00:00:00 CBJWPB R~ CBJW~
    ##  5      76091 CBJWPB   JEWE~  2007 2007-10-22 00:00:00 CBJWPB R~ CBJW~
    ##  6      76091 CBJWPB   JEWE~  2007 2007-10-22 00:00:00 CBJWPB R~ CBJW~
    ##  7      76091 CBJWPB   JEWE~  2007 2007-10-22 00:00:00 CBJWPB R~ CBJW~
    ##  8      76091 CBJWPB   JEWE~  2007 2007-10-22 00:00:00 CBJWPB R~ CBJW~
    ##  9      76091 CBJWPB   JEWE~  2007 2007-10-22 00:00:00 CBJWPB R~ CBJW~
    ## 10      76091 CBJWPB   JEWE~  2007 2007-10-22 00:00:00 CBJWPB R~ CBJW~
    ## # ... with 112,874 more rows, and 18 more variables:
    ## #   CURRENT_SAMPLE_POINT_NAME <chr>, `ANALYSIS LAB` <chr>, `SAMPLE COLLECTION
    ## #   METHOD` <chr>, ANALYSIS_LAB_SAMPLE_ID <chr>, `TEST METHOD` <chr>, `TEST
    ## #   METHOD DESCRIPTION` <chr>, PARAMETER <chr>, CONCENTRATION <dbl>, `UNITS
    ## #   VALUE` <chr>, `LAB QUALIFIER` <chr>, `VALIDATION QUALIFIER` <chr>,
    ## #   `QUALIFIER DESCRIPTION` <chr>, RL <dbl>, MDL <dbl>, `WEIGHT BASIS` <chr>,
    ## #   `PREP METHOD` <chr>, DILUTION_FACTOR <chr>, CAS_NO <chr>
…
SWAT_simplified %>%
  select(code, PARAMETER, `WEIGHT BASIS`, CONCENTRATION) %>%
  group_by(code, PARAMETER) %>%
  summarize(nlip = sum(`WEIGHT BASIS` == 'LIP', na.rm= TRUE),
            ndry = sum(`WEIGHT BASIS` == 'DRY', na.rm= TRUE),
            nwet = sum(`WEIGHT BASIS` == 'WET', na.rm= TRUE),
            vlip = mean(CONCENTRATION[`WEIGHT BASIS` == 'LIP'], na.rm= TRUE),
            vdry = mean(CONCENTRATION[`WEIGHT BASIS` == 'DRY'], na.rm= TRUE),
            vwet = mean(CONCENTRATION[`WEIGHT BASIS` == 'WET'], na.rm= TRUE),
            problem = ! (vlip >= vdry & vdry >= vwet),
            .groups = 'drop') %>%
      filter(problem)
```

    ## # A tibble: 145 x 9
    ##    code       PARAMETER             nlip  ndry  nwet   vlip   vdry  vwet problem
    ##    <chr>      <chr>                <int> <int> <int>  <dbl>  <dbl> <dbl> <lgl>  
    ##  1 CBEEEE_RE~ 2',3,4,4',5-PENTACH~     2     2     2  61.1   88.2   8.55 TRUE   
    ##  2 CBEEEE_RE~ 2-CHLOROBIPHENYL         2     2     2   2.5    3.61  0.35 TRUE   
    ##  3 CBEEEE_RE~ 2,2'-DICHLOROBIPHEN~     2     2     2   8.14  11.7   1.14 TRUE   
    ##  4 CBEEEE_RE~ 2,2',3-TRICHLOROBIP~     2     2     2  26.4   38.1   3.7  TRUE   
    ##  5 CBEEEE_RE~ 2,2',3,3',4-PENTACH~     2     2     2 319    460    44.7  TRUE   
    ##  6 CBEEEE_RE~ 2,2',3,3',4,4',5-HE~     2     2     2 356    514    49.9  TRUE   
    ##  7 CBEEEE_RE~ 2,2',3,3',4,4',5,5'~     2     2     2 111    160    15.5  TRUE   
    ##  8 CBEEEE_RE~ 2,2',3,3',4,4',5,5'~     2     2     2  22.7   32.8   3.18 TRUE   
    ##  9 CBEEEE_RE~ 2,2',3,3',4,4',5,6'~     2     2     2  17.1   24.7   2.39 TRUE   
    ## 10 CBEEEE_RE~ 2,2',3,3',4,4',5,6-~     2     2     2  14.1   20.4   1.98 TRUE   
    ## # ... with 135 more rows
…
Lets see how many times we have duplicate values with the same CAS
number.

``` r
SWAT_data %>% 
 # filter(`WEIGHT BASIS` == 'LIP') %>%
  group_by(CAS_NO) %>%
  summarize(nnames = length(unique(PARAMETER)),
            name = first (PARAMETER),
            .groups = 'drop') %>%
  arrange(name)
```

    ## # A tibble: 399 x 3
    ##    CAS_NO   nnames name                                        
    ##    <chr>     <int> <chr>                                       
    ##  1 90120         1 1-METHYL NAPHTHALENE                        
    ##  2 3351288       1 1-METHYLCHRYSENE                            
    ##  3 832699        1 1-METHYLPHENANTHRENE                        
    ##  4 573988        1 1,2-DIMETHYLNAPHTHALENE                     
    ##  5 35822469      1 1,2,3,4,6,7,8-HPCDD                         
    ##  6 67562394      1 1,2,3,4,6,7,8-HPCDF                         
    ##  7 39227286      1 1,2,3,4,7,8-HXCDD                           
    ##  8 70648269      1 1,2,3,4,7,8-HXCDF                           
    ##  9 55673897      1 1,2,3,4,7,8,9-HEPTACHLORODIBENZOFURAN(HPCDF)
    ## 10 57653857      1 1,2,3,6,7,8-HXCDD                           
    ## # ... with 389 more rows
…
## Read In a Hand Edited Classification of Parameters

We can then read in the resulting Excel File to provide groupings…

``` r
Parameter_List <- read_excel("Parameter List.xlsx", 
    sheet = "Parameter List") %>%
  mutate(Class = factor(Class)) %>%
  arrange(Class, PARAMETER)
Parameter_List
```

    ## # A tibble: 399 x 2
    ##    PARAMETER                                    Class 
    ##    <chr>                                        <fct> 
    ##  1 1,2,3,4,6,7,8-HPCDD                          Dioxin
    ##  2 1,2,3,4,6,7,8-HPCDF                          Dioxin
    ##  3 1,2,3,4,7,8-HXCDD                            Dioxin
    ##  4 1,2,3,4,7,8-HXCDF                            Dioxin
    ##  5 1,2,3,4,7,8,9-HEPTACHLORODIBENZOFURAN(HPCDF) Dioxin
    ##  6 1,2,3,6,7,8-HXCDD                            Dioxin
    ##  7 1,2,3,6,7,8-HXCDF                            Dioxin
    ##  8 1,2,3,7,8-PECDD                              Dioxin
    ##  9 1,2,3,7,8-PECDF                              Dioxin
    ## 10 1,2,3,7,8,9-HXCDD                            Dioxin
    ## # ... with 389 more rows
…
