…
`PCBS` and `TOTAL PCB-H` are nearly identical, and `TOTAL PCB-H` is
available more consistently, and has higher resolution, so we will use
that in preference to the “PCBS” value.

``` r
swat_data %>%
  filter(grepl('TOTAL', parameter) &
         grepl('PCB', parameter)   &
         (grepl('-H$', parameter) |
          grepl('\\/2', parameter)))
```

    ## # A tibble: 212 x 27
    ##    site_seq sitecode site   year sample_date sample_id code  samp_pt_name lab  
    ##       <dbl> <chr>    <chr> <dbl> <date>      <chr>     <chr> <chr>        <chr>
    ##  1    76091 CBJWPB   JEWE~  2007 2007-10-22  CBJWPB R~ CBJW~ REP 1        AXYS~
    ##  2    76091 CBJWPB   JEWE~  2007 2007-10-22  CBJWPB R~ CBJW~ REP 1        AXYS~
    ##  3    76091 CBJWPB   JEWE~  2007 2007-10-22  CBJWPB R~ CBJW~ REP 2        AXYS~
    ##  4    76091 CBJWPB   JEWE~  2007 2007-10-22  CBJWPB R~ CBJW~ REP 2        AXYS~
    ##  5    76091 CBJWPB   JEWE~  2007 2007-10-22  CBJWPB R~ CBJW~ REP 3        AXYS~
    ##  6    76091 CBJWPB   JEWE~  2007 2007-10-22  CBJWPB R~ CBJW~ REP 3        AXYS~
    ##  7    76091 CBJWPB   JEWE~  2007 2007-10-22  CBJWPB R~ CBJW~ REP 4        AXYS~
    ##  8    76091 CBJWPB   JEWE~  2007 2007-10-22  CBJWPB R~ CBJW~ REP 4        AXYS~
    ##  9    76073 CBANAN   FALM~  2007 2007-10-18  CBANAN R~ CBAN~ REP 1        AXYS~
    ## 10    76073 CBANAN   FALM~  2007 2007-10-18  CBANAN R~ CBAN~ REP 1        AXYS~
    ## # ... with 202 more rows, and 18 more variables: lab_id <chr>, method <chr>,
    ## #   method_name <chr>, parameter <chr>, concentration <dbl>, units <chr>,
    ## #   lab_qualifier <chr>, qualifier <chr>, qual_description <chr>, rl <dbl>,
    ## #   mdl <dbl>, prep_method <chr>, dilution_factor <dbl>, cas_no <chr>,
    ## #   conc_ugg <dbl>, conc_ngg <dbl>, rl_ugg <dbl>, rl_ngg <dbl>
…
We Check to confirm everything so far has worked as expected. If so,
each congener number will turn up exactly once. The magic function here
is `separate_rows()`.

``` r
pcb_data %>%
  select(pcb_congener_name) %>%
  unique() %>%
  mutate(available_nums  = sub('PCB-', '', pcb_congener_name)) %>%
  separate_rows(available_nums) %>%
  mutate(available_nums = as.numeric(available_nums)) %>%
  arrange(available_nums)
```

    ## # A tibble: 209 x 2
    ##    pcb_congener_name available_nums
    ##    <chr>                      <dbl>
    ##  1 PCB-1                          1
    ##  2 PCB-2                          2
    ##  3 PCB-3                          3
    ##  4 PCB-4                          4
    ##  5 PCB-5                          5
    ##  6 PCB-6                          6
    ##  7 PCB-7                          7
    ##  8 PCB-8                          8
    ##  9 PCB-9                          9
    ## 10 PCB-10                        10
    ## # ... with 199 more rows
…
  # Calculate sums across SWAT PCBs for each sample or subsample.
  # And add parameter-specific metadata.
  group_by(code, lab_id) %>%
  summarize(concentration = sum(conc, na.rm = TRUE),
            conc_ngg = concentration,
            conc_ugg = concentration / 1000,
            parameter = 'SWAT_PCBs-H',
            units     = 'NG/G',
            method = 'Calculated',
            .groups   = 'drop') 
pcb_swat
```

    ## # A tibble: 107 x 8
    ##    code         lab_id   concentration conc_ngg conc_ugg parameter units method 
    ##    <chr>        <chr>            <dbl>    <dbl>    <dbl> <chr>     <chr> <chr>  
    ##  1 CBANAN_REP_~ L10702-1          12.6     12.6   0.0126 SWAT_PCB~ NG/G  Calcul~
    ##  2 CBANAN_REP_~ L10702-2          13.7     13.7   0.0137 SWAT_PCB~ NG/G  Calcul~
    ##  3 CBANAN_REP_~ L10702-~          34.4     34.4   0.0344 SWAT_PCB~ NG/G  Calcul~
    ##  4 CBANAN_REP_~ L10702-4          14.3     14.3   0.0143 SWAT_PCB~ NG/G  Calcul~
    ##  5 CBEEEE_REP_~ L10702-~          22.8     22.8   0.0228 SWAT_PCB~ NG/G  Calcul~
    ##  6 CBEEEE_REP_~ L13939-1          33.8     33.8   0.0338 SWAT_PCB~ NG/G  Calcul~
    ##  7 CBEEEE_REP_~ L17179-5          20.7     20.7   0.0207 SWAT_PCB~ NG/G  Calcul~
    ##  8 CBEEEE_REP_~ L20804-5          22.0     22.0   0.0220 SWAT_PCB~ NG/G  Calcul~
    ##  9 CBEEEE_REP_~ L24113-1          22.0     22.0   0.0220 SWAT_PCB~ NG/G  Calcul~
    ## 10 CBEEEE_REP_~ L28408-9          23.0     23.0   0.0230 SWAT_PCB~ NG/G  Calcul~
    ## # ... with 97 more rows
…
  # Drop any data that is sample-specific.  We simply drop those data
  # columns.  When we `bind_rows()` later, missing columns will be filled in 
  # with NA.
  select(-c(method:pcb_congener_name))

# Finally, we use the inner join to combine data
pcb_swat <- ancillary_data %>%
  inner_join(pcb_swat, by = c('code', 'lab_id'))
pcb_swat
```

    ## # A tibble: 107 x 16
    ## # Groups:   code, lab_id [107]
    ##    site_seq sitecode site   year sample_date sample_id code  samp_pt_name lab  
    ##       <dbl> <chr>    <chr> <dbl> <date>      <chr>     <chr> <chr>        <chr>
    ##  1    76091 CBJWPB   JEWE~  2007 2007-10-22  CBJWPB R~ CBJW~ REP 1        AXYS~
    ##  2    76091 CBJWPB   JEWE~  2007 2007-10-22  CBJWPB R~ CBJW~ REP 2        AXYS~
    ##  3    76091 CBJWPB   JEWE~  2007 2007-10-22  CBJWPB R~ CBJW~ REP 3        AXYS~
    ##  4    76091 CBJWPB   JEWE~  2007 2007-10-22  CBJWPB R~ CBJW~ REP 4        AXYS~
    ##  5    76073 CBANAN   FALM~  2007 2007-10-18  CBANAN R~ CBAN~ REP 1        AXYS~
    ##  6    76073 CBANAN   FALM~  2007 2007-10-18  CBANAN R~ CBAN~ REP 2        AXYS~
    ##  7    76073 CBANAN   FALM~  2007 2007-10-18  CBANAN R~ CBAN~ REP 3        AXYS~
    ##  8    76073 CBANAN   FALM~  2007 2007-10-18  CBANAN R~ CBAN~ REP 4        AXYS~
    ##  9    70678 CBMCMC   MILL~  2009 2009-11-10  CBMCMC R~ CBMC~ REP 1        AXYS~
    ## 10    70678 CBMCMC   MILL~  2009 2009-11-10  CBMCMC R~ CBMC~ REP 2        AXYS~
    ## # ... with 97 more rows, and 7 more variables: lab_id <chr>,
    ## #   concentration <dbl>, conc_ngg <dbl>, conc_ugg <dbl>, parameter <chr>,
    ## #   units <chr>, method <chr>
…
  # Calculate sums across parameters
  group_by(code, lab_id) %>%
  summarize(concentration = sum(conc, na.rm = TRUE),
            conc_ngg = concentration,
            conc_ugg = concentration / 1000,
            parameter = 'Total DDT',
            units     = 'NG/G',
            method = 'Calculated',
            .groups   = 'drop') 
ddt_data
```

    ## # A tibble: 76 x 8
    ##    code         lab_id   concentration conc_ngg conc_ugg parameter units method 
    ##    <chr>        <chr>            <dbl>    <dbl>    <dbl> <chr>     <chr> <chr>  
    ##  1 CBANAN_REP_~ L10702-~          9.18     9.18  0.00918 Total DDT NG/G  Calcul~
    ##  2 CBANAN_REP_~ L10702-~         10.0     10.0   0.0100  Total DDT NG/G  Calcul~
    ##  3 CBANAN_REP_~ L10702-~         11.3     11.3   0.0113  Total DDT NG/G  Calcul~
    ##  4 CBANAN_REP_~ L10702-~         10.8     10.8   0.0108  Total DDT NG/G  Calcul~
    ##  5 CBEEEE_REP_~ L10702-~         17.4     17.4   0.0174  Total DDT NG/G  Calcul~
    ##  6 CBEEEE_REP_~ L13939-~         11.0     11.0   0.0110  Total DDT NG/G  Calcul~
    ##  7 CBEEEE_REP_~ L17179-5         14.0     14.0   0.0140  Total DDT NG/G  Calcul~
    ##  8 CBEEEE_REP_~ L10702-~         18.7     18.7   0.0187  Total DDT NG/G  Calcul~
    ##  9 CBEEEE_REP_~ L13939-2         12.6     12.6   0.0126  Total DDT NG/G  Calcul~
    ## 10 CBEEEE_REP_~ L17179-6         18.1     18.1   0.0181  Total DDT NG/G  Calcul~
    ## # ... with 66 more rows
…
  # Now, drop any data that is sample-specific.  We simply drop those data
  # columns.  When we `bind_rows()` later, missing columns wil lbe filled in 
  # with NA.
  
  select(-c(method:rl_ngg))

# Finally, we use the inner join to combine data

ddt_data <- ancillary_data %>%
  inner_join(ddt_data, by = c('code', 'lab_id'))
ddt_data
```

    ## # A tibble: 76 x 16
    ## # Groups:   code, lab_id [76]
    ##    site_seq sitecode site   year sample_date sample_id code  samp_pt_name lab  
    ##       <dbl> <chr>    <chr> <dbl> <date>      <chr>     <chr> <chr>        <chr>
    ##  1    76091 CBJWPB   JEWE~  2007 2007-10-22  CBJWPB R~ CBJW~ REP 1        AXYS~
    ##  2    76091 CBJWPB   JEWE~  2007 2007-10-22  CBJWPB R~ CBJW~ REP 2        AXYS~
    ##  3    76091 CBJWPB   JEWE~  2007 2007-10-22  CBJWPB R~ CBJW~ REP 3        AXYS~
    ##  4    76091 CBJWPB   JEWE~  2007 2007-10-22  CBJWPB R~ CBJW~ REP 4        AXYS~
    ##  5    76073 CBANAN   FALM~  2007 2007-10-18  CBANAN R~ CBAN~ REP 1        AXYS~
    ##  6    76073 CBANAN   FALM~  2007 2007-10-18  CBANAN R~ CBAN~ REP 2        AXYS~
    ##  7    76073 CBANAN   FALM~  2007 2007-10-18  CBANAN R~ CBAN~ REP 3        AXYS~
    ##  8    76073 CBANAN   FALM~  2007 2007-10-18  CBANAN R~ CBAN~ REP 4        AXYS~
    ##  9    70678 CBMCMC   MILL~  2009 2009-11-10  CBMCMC R~ CBMC~ REP 1        AXYS~
    ## 10    70678 CBMCMC   MILL~  2009 2009-11-10  CBMCMC R~ CBMC~ REP 2        AXYS~
    ## # ... with 66 more rows, and 7 more variables: lab_id <chr>,
    ## #   concentration <dbl>, conc_ngg <dbl>, conc_ugg <dbl>, parameter <chr>,
    ## #   units <chr>, method <chr>
…
