…
### What is `CURRENT_SAMPLE_POINT_NAME`?

``` r
as.tibble(xtabs(~SWAT_data$`CURRENT_SAMPLE_POINT_NAME`, addNA = TRUE)) %>%
  rename_at(c(1), ~'SPoint1')
```

    ## Warning: `as.tibble()` is deprecated as of tibble 2.0.0.
    ## Please use `as_tibble()` instead.
    ## The signature and semantics have changed, see `?as_tibble`.
    ## This warning is displayed once every 8 hours.
    ## Call `lifecycle::last_warnings()` to see where this warning was generated.

    ## # A tibble: 40 x 2
    ##    SPoint1        n
    ##    <chr>      <int>
    ##  1 1N            40
    ##  2 2N            40
    ##  3 3N            40
    ##  4 4N            39
    ##  5 REP 1      13908
    ##  6 REP 1 2010   873
    ##  7 REP 1 2011  1746
    ##  8 REP 1 2012   880
    ##  9 REP 1 2013   830
    ## 10 REP 1 2014  2452
    ## # ... with 30 more rows
…
#### Does `SAMPLE COLLECTION METHOD` Break Out by Parameter?

``` r
xtabs(~PARAMETER + `SAMPLE COLLECTION METHOD`, data = SWAT_data) %>%
  as.tibble() %>%
  pivot_wider(id_cols = PARAMETER,
              names_from = `SAMPLE COLLECTION METHOD`,
              values_from = n) %>%
  arrange(`COMPOSITE SAMPLE`, `PARAMETER`)
```

    ## # A tibble: 399 x 3
    ##    PARAMETER                            `COMPOSITE SAMPLE` `HAND-PICKED`
    ##    <chr>                                             <int>         <int>
    ##  1 2,2',3,3',5-PENTACHLOROBIPHENYL                       0             7
    ##  2 2,2',3,4,4',5,5'-HEPTACHLOROBIPHENYL                  0             8
    ##  3 2,2',3,5',6-PENTACHLOROBIPHENYL                       0             7
    ##  4 2,2',4,4',5-PENTACHLOROBIPHENYL                       0             7
    ##  5 2,2',4,4',5,6'-HEXACHLOROBIPHENYL                     0             7
    ##  6 2,3,3',4,4',5'-HEXACHLOROBIPHENYL                     0             8
    ##  7 2,3,3',4,4',5-HEXACHLOROBIPHENYL                      0             8
    ##  8 2,3,3',4,5,6-HEXACHLOROBIPHENYL                       0             7
    ##  9 BENZO(K)FLUORANTHENE                                  0             8
    ## 10 PCB-093/098/100/102                                   0             7
    ## # ... with 389 more rows
…
So this ALMOST lines up. With a few exceptions, all or almost all data
from each site is flagged one way or the other.

#### Does `SAMPLE COLLECTION METHOD` Break Out by Date?

``` r
xtabs(~SAMPLE_DATE + `SAMPLE COLLECTION METHOD`, data = SWAT_data) %>%
  as.tibble() %>%
  pivot_wider(id_cols = SAMPLE_DATE,
              names_from = `SAMPLE COLLECTION METHOD`,
              values_from = n)
```

    ## # A tibble: 32 x 3
    ##    SAMPLE_DATE `COMPOSITE SAMPLE` `HAND-PICKED`
    ##    <chr>                    <int>         <int>
    ##  1 2003-10-01                   0           264
    ##  2 2003-10-16                   0           159
    ##  3 2003-11-04                   0            72
    ##  4 2003-11-17                   0          1603
    ##  5 2006-10-12                  58             3
    ##  6 2006-10-17                   0           757
    ##  7 2006-10-30                 663             4
    ##  8 2006-11-29                   0           778
    ##  9 2007-10-18                2944             8
    ## 10 2007-10-22                5444             8
    ## # ... with 22 more rows
…
